1 10 20
100 200 125
201 210 89
900 1000 174
77 399 144
1019 10023 262
30392 29382 272
12 453 144
1 1 1
99 18 119
343 1938 182
342 123 144
44 46 17
83 1 116
10101 1011 262
11 12 15
28 199 125
1500 1600 167
999 1000 112
555555 555556 178
3939 22929 279
10 1 20
777 777 34
33 99 119
998 10 179
15 16 18
999999 999995 259
37 99 119
100 101 26
1700 1800 180
999 1000 112
500 3000 217
3500 4500 238
525 1025 179
425 10065 262
1000 2000 182
3000 9000 262
1 10000 262
1 10001 262
1000 10000 262
4000 5000 215
29 100000 351
1 999999 525
777 1777 182
777 1778 182
2000 1000 182
5000 500 238
10000 8999 260
10000 9000 260
10 1160 179
10 1161 182
998998 999999 396
55000 56001 260
55500 65000 335
1 345000 443
7777 67333 340
9384 38932 324
34 66 113
2345 9678 262
1234 9876 262
87000 900 351
34 777 171
10000 20000 279
50000 25564 324
28374 18274 308
13 15 18
5001 9002 262
4545 6565 262
13947 324892 443
4324 2345 238
2234 2657 209
838476 34566 525
100 1000 179
1012 1000 143
20000 10 279
54000 355000 443
57640 58473 242
340897 457 443
650000 12999 509
47456 42983 314
6565 765432 509
3957 47567 324
48476 3747 324
3564 34612 311
9887 7886 260
120000 48575 354
343556 26235 443
35 66 113
5678 4965 236
78576 345 351
67346 34656 340
3455 34331 311
9769 7567 260
96755 6587 351
56785 9896 340
467457 5865 449
785674 4574 509
88875 997865 525
897897 80989 525
54644 54634 185
56465 675675 509
24332 456654 449
3242 563 217
453 678565 509
4565 7654 262
453678 22398 449
121 67868 340
1235 98643 351
9865 21345 279
4538 8795 262
2345 897897 525
5434 2389 238
23958 387676 443
12395 49084 324
